<mxfile host="app.diagrams.net" modified="2024-03-03T12:43:33.738Z" agent="Mozilla/5.0 (Windows NT 10.0; Win64; x64) AppleWebKit/537.36 (KHTML, like Gecko) Chrome/122.0.0.0 Safari/537.36" etag="HSQEtDJATx3npGqwH5Pj" version="23.1.5" type="gitlab">
  <diagram name="Page-1" id="tOx385Ajtr9fywQKB3YA">
    <mxGraphModel dx="1050" dy="1725" grid="1" gridSize="10" guides="1" tooltips="1" connect="1" arrows="1" fold="1" page="1" pageScale="1" pageWidth="827" pageHeight="1169" math="0" shadow="0">
      <root>
        <mxCell id="0" />
        <mxCell id="1" parent="0" />
        <mxCell id="LK7OXAz6XXHm377I7Upr-2" value="&lt;font style=&quot;&quot;&gt;&lt;span style=&quot;font-size: 18px;&quot;&gt;&lt;b&gt;Trello Application User&lt;/b&gt;&lt;/span&gt;&lt;br&gt;(person)&lt;br&gt;&lt;br&gt;&lt;font style=&quot;font-size: 14px;&quot;&gt;User creates Todo items on boards and tracks status of Todo items.&lt;/font&gt;&lt;br&gt;&lt;/font&gt;" style="rounded=1;whiteSpace=wrap;html=1;gradientColor=#ea6b66;fillColor=#f8cecc;strokeColor=#b85450;" parent="1" vertex="1">
          <mxGeometry x="30" y="-89" width="240" height="135" as="geometry" />
        </mxCell>
        <mxCell id="LK7OXAz6XXHm377I7Upr-3" value="" style="ellipse;whiteSpace=wrap;html=1;aspect=fixed;gradientColor=#ea6b66;fillColor=#f8cecc;strokeColor=#b85450;" parent="1" vertex="1">
          <mxGeometry x="110" y="-170" width="76" height="76" as="geometry" />
        </mxCell>
        <mxCell id="LK7OXAz6XXHm377I7Upr-5" value="&lt;font style=&quot;font-size: 18px;&quot;&gt;&lt;b&gt;TODO Application&lt;/b&gt;&lt;/font&gt;&lt;br&gt;(software System)&lt;br&gt;&lt;font style=&quot;&quot;&gt;&lt;font style=&quot;font-size: 6px;&quot;&gt;&lt;br&gt;&lt;/font&gt;&lt;span style=&quot;font-size: 14px;&quot;&gt;Creates new cards for items on the board by taking names as input.&lt;/span&gt;&lt;br&gt;&lt;span style=&quot;font-size: 14px;&quot;&gt;Also allows user to change the status &lt;/span&gt;&lt;br&gt;&lt;font style=&quot;font-size: 8px;&quot;&gt;&lt;br&gt;&lt;/font&gt;&lt;span style=&quot;font-size: 14px;&quot;&gt;Todo =&amp;gt;&amp;nbsp; In Progress =&amp;gt; Done&lt;/span&gt;&lt;br&gt;&lt;br&gt;&lt;/font&gt;" style="rounded=0;whiteSpace=wrap;html=1;fillColor=#dae8fc;strokeColor=#6c8ebf;gradientColor=#7ea6e0;" parent="1" vertex="1">
          <mxGeometry x="28" y="280" width="240" height="160" as="geometry" />
        </mxCell>
        <mxCell id="LK7OXAz6XXHm377I7Upr-6" value="Input names of new cards, &lt;br&gt;Amend the status of existing cards&lt;br&gt;Delete the Cards" style="endArrow=classic;html=1;rounded=0;entryX=0;entryY=0.5;entryDx=0;entryDy=0;exitX=1;exitY=1;exitDx=0;exitDy=0;" parent="1" edge="1" target="LK7OXAz6XXHm377I7Upr-12" source="LK7OXAz6XXHm377I7Upr-2">
          <mxGeometry x="-0.3422" y="-17" relative="1" as="geometry">
            <mxPoint x="210" y="80" as="sourcePoint" />
            <mxPoint x="478" y="150" as="targetPoint" />
            <mxPoint as="offset" />
          </mxGeometry>
        </mxCell>
        <mxCell id="LK7OXAz6XXHm377I7Upr-12" value="&lt;font style=&quot;font-size: 18px;&quot;&gt;Browser&lt;/font&gt;&lt;br&gt;(software System)&lt;br&gt;&lt;br&gt;&lt;font style=&quot;font-size: 14px;&quot;&gt;Displays the current state of task list in sorted order.&lt;br&gt;&lt;/font&gt;" style="rounded=0;whiteSpace=wrap;html=1;fillColor=#f5f5f5;gradientColor=#b3b3b3;strokeColor=#666666;" parent="1" vertex="1">
          <mxGeometry x="520" y="-150" width="270" height="140" as="geometry" />
        </mxCell>
        <mxCell id="LK7OXAz6XXHm377I7Upr-13" value="" style="endArrow=classic;html=1;rounded=0;exitX=0.5;exitY=0;exitDx=0;exitDy=0;entryX=0.5;entryY=1;entryDx=0;entryDy=0;" parent="1" source="LK7OXAz6XXHm377I7Upr-5" target="LK7OXAz6XXHm377I7Upr-12" edge="1">
          <mxGeometry width="50" height="50" relative="1" as="geometry">
            <mxPoint x="390" y="330" as="sourcePoint" />
            <mxPoint x="440" y="280" as="targetPoint" />
          </mxGeometry>
        </mxCell>
        <mxCell id="LK7OXAz6XXHm377I7Upr-14" value="Send the formatted &lt;br&gt;output to Browser" style="edgeLabel;html=1;align=center;verticalAlign=middle;resizable=0;points=[];" parent="LK7OXAz6XXHm377I7Upr-13" vertex="1" connectable="0">
          <mxGeometry x="-0.0493" y="-1" relative="1" as="geometry">
            <mxPoint x="50" y="-43" as="offset" />
          </mxGeometry>
        </mxCell>
        <mxCell id="LK7OXAz6XXHm377I7Upr-17" value="" style="endArrow=classic;html=1;rounded=0;entryX=1;entryY=0.5;entryDx=0;entryDy=0;exitX=0;exitY=0;exitDx=0;exitDy=0;" parent="1" source="LK7OXAz6XXHm377I7Upr-12" target="LK7OXAz6XXHm377I7Upr-2" edge="1">
          <mxGeometry width="50" height="50" relative="1" as="geometry">
            <mxPoint x="390" y="330" as="sourcePoint" />
            <mxPoint x="440" y="280" as="targetPoint" />
          </mxGeometry>
        </mxCell>
        <mxCell id="LK7OXAz6XXHm377I7Upr-18" value="User&amp;nbsp; can see the current &lt;br&gt;state of Task board" style="edgeLabel;html=1;align=center;verticalAlign=middle;resizable=0;points=[];" parent="LK7OXAz6XXHm377I7Upr-17" vertex="1" connectable="0">
          <mxGeometry x="0.2835" relative="1" as="geometry">
            <mxPoint x="35" y="-3" as="offset" />
          </mxGeometry>
        </mxCell>
        <mxCell id="LK7OXAz6XXHm377I7Upr-19" value="" style="endArrow=classic;html=1;rounded=0;exitX=0;exitY=1;exitDx=0;exitDy=0;entryX=0;entryY=0;entryDx=0;entryDy=0;" parent="1" source="LK7OXAz6XXHm377I7Upr-12" target="LK7OXAz6XXHm377I7Upr-5" edge="1">
          <mxGeometry width="50" height="50" relative="1" as="geometry">
            <mxPoint x="390" y="330" as="sourcePoint" />
            <mxPoint x="450" y="360" as="targetPoint" />
          </mxGeometry>
        </mxCell>
        <mxCell id="LK7OXAz6XXHm377I7Upr-20" value="User input sent to TODO App" style="edgeLabel;html=1;align=center;verticalAlign=middle;resizable=0;points=[];" parent="LK7OXAz6XXHm377I7Upr-19" vertex="1" connectable="0">
          <mxGeometry x="0.0387" relative="1" as="geometry">
            <mxPoint x="-54" y="29" as="offset" />
          </mxGeometry>
        </mxCell>
        <mxCell id="v56WtTbW58IpxSlfkrmT-1" value="&lt;span style=&quot;font-size: 18px;&quot;&gt;Trello&lt;/span&gt;&lt;br&gt;(software System)&lt;br&gt;&lt;br&gt;&lt;font style=&quot;font-size: 14px;&quot;&gt;Manages Secrets and provides API for communication.&lt;br&gt;&lt;/font&gt;" style="rounded=0;whiteSpace=wrap;html=1;fillColor=#f5f5f5;gradientColor=#b3b3b3;strokeColor=#666666;" vertex="1" parent="1">
          <mxGeometry x="518" y="92" width="270" height="140" as="geometry" />
        </mxCell>
        <mxCell id="v56WtTbW58IpxSlfkrmT-2" value="" style="endArrow=classic;html=1;rounded=0;exitX=1;exitY=1;exitDx=0;exitDy=0;entryX=0.25;entryY=1;entryDx=0;entryDy=0;" edge="1" parent="1" source="LK7OXAz6XXHm377I7Upr-5" target="v56WtTbW58IpxSlfkrmT-1">
          <mxGeometry width="50" height="50" relative="1" as="geometry">
            <mxPoint x="290" y="420" as="sourcePoint" />
            <mxPoint x="650" y="232" as="targetPoint" />
          </mxGeometry>
        </mxCell>
        <mxCell id="v56WtTbW58IpxSlfkrmT-3" value="Valiidate the Secrets to allow user update&lt;br&gt;via the Trello API" style="edgeLabel;html=1;align=center;verticalAlign=middle;resizable=0;points=[];" vertex="1" connectable="0" parent="v56WtTbW58IpxSlfkrmT-2">
          <mxGeometry x="-0.0493" y="-1" relative="1" as="geometry">
            <mxPoint x="-39" y="68" as="offset" />
          </mxGeometry>
        </mxCell>
        <mxCell id="v56WtTbW58IpxSlfkrmT-4" value="" style="endArrow=classic;html=1;rounded=0;exitX=-0.007;exitY=0.559;exitDx=0;exitDy=0;entryX=1;entryY=0;entryDx=0;entryDy=0;exitPerimeter=0;" edge="1" parent="1" source="v56WtTbW58IpxSlfkrmT-1" target="LK7OXAz6XXHm377I7Upr-5">
          <mxGeometry width="50" height="50" relative="1" as="geometry">
            <mxPoint x="530" as="sourcePoint" />
            <mxPoint x="38" y="290" as="targetPoint" />
          </mxGeometry>
        </mxCell>
        <mxCell id="v56WtTbW58IpxSlfkrmT-5" value="User validation status sent to TODO App&amp;nbsp;&lt;br&gt;via responses to Trello API" style="edgeLabel;html=1;align=center;verticalAlign=middle;resizable=0;points=[];" vertex="1" connectable="0" parent="v56WtTbW58IpxSlfkrmT-4">
          <mxGeometry x="0.0387" relative="1" as="geometry">
            <mxPoint x="-54" y="29" as="offset" />
          </mxGeometry>
        </mxCell>
      </root>
    </mxGraphModel>
  </diagram>
</mxfile>
