<mxfile host="app.diagrams.net" modified="2024-03-03T13:06:49.967Z" agent="Mozilla/5.0 (Windows NT 10.0; Win64; x64) AppleWebKit/537.36 (KHTML, like Gecko) Chrome/122.0.0.0 Safari/537.36" etag="IMTfyZovIZUZ8NtI6q_b" version="23.1.5" type="gitlab">
  <diagram name="Page-1" id="JvhHKf316jWIno8IOOxy">
    <mxGraphModel dx="1050" dy="556" grid="1" gridSize="10" guides="1" tooltips="1" connect="1" arrows="1" fold="1" page="1" pageScale="1" pageWidth="827" pageHeight="1169" math="0" shadow="0">
      <root>
        <mxCell id="0" />
        <mxCell id="1" parent="0" />
        <mxCell id="Ex-QI2LHUBcfyn989spc-12" value="" style="rounded=0;whiteSpace=wrap;html=1;dashed=1;dashPattern=12 12;" parent="1" vertex="1">
          <mxGeometry x="20" y="480" width="460" height="530" as="geometry" />
        </mxCell>
        <mxCell id="Ex-QI2LHUBcfyn989spc-1" value="&lt;font style=&quot;&quot;&gt;&lt;span style=&quot;font-size: 18px;&quot;&gt;&lt;b&gt;Trello Application User&lt;/b&gt;&lt;/span&gt;&lt;br&gt;(person)&lt;br&gt;&lt;br&gt;&lt;font style=&quot;font-size: 14px;&quot;&gt;User creates Todo items on boards and tracks status of Todo items.&lt;/font&gt;&lt;br&gt;&lt;/font&gt;" style="rounded=1;whiteSpace=wrap;html=1;gradientColor=#ea6b66;fillColor=#f8cecc;strokeColor=#b85450;" parent="1" vertex="1">
          <mxGeometry x="120" y="95" width="240" height="135" as="geometry" />
        </mxCell>
        <mxCell id="Ex-QI2LHUBcfyn989spc-2" value="" style="ellipse;whiteSpace=wrap;html=1;aspect=fixed;gradientColor=#ea6b66;fillColor=#f8cecc;strokeColor=#b85450;" parent="1" vertex="1">
          <mxGeometry x="200" y="14" width="76" height="76" as="geometry" />
        </mxCell>
        <mxCell id="Ex-QI2LHUBcfyn989spc-3" value="&lt;font style=&quot;font-size: 18px;&quot;&gt;&lt;b&gt;Web Application&lt;/b&gt;&lt;/font&gt;&lt;br&gt;(Flask interface)&lt;br&gt;&lt;font style=&quot;&quot;&gt;&lt;font style=&quot;font-size: 6px;&quot;&gt;&lt;br&gt;&lt;/font&gt;&lt;span style=&quot;font-size: 14px;&quot;&gt;Delivers and fetches the contents of the Web page which displays the Task board&lt;/span&gt;&lt;br&gt;&lt;/font&gt;" style="rounded=0;whiteSpace=wrap;html=1;fillColor=#dae8fc;strokeColor=#6c8ebf;gradientColor=#7ea6e0;" parent="1" vertex="1">
          <mxGeometry x="50" y="525" width="240" height="160" as="geometry" />
        </mxCell>
        <mxCell id="Ex-QI2LHUBcfyn989spc-4" value="Input names of new cards, &lt;br&gt;Amend the status of existing cards&lt;br&gt;Delete the Cards" style="endArrow=classic;html=1;rounded=0;entryX=0;entryY=0.5;entryDx=0;entryDy=0;exitX=0.5;exitY=1;exitDx=0;exitDy=0;" parent="1" edge="1">
          <mxGeometry relative="1" as="geometry">
            <mxPoint x="240" y="229" as="sourcePoint" />
            <mxPoint x="508" y="299" as="targetPoint" />
          </mxGeometry>
        </mxCell>
        <mxCell id="Ex-QI2LHUBcfyn989spc-5" value="&lt;font style=&quot;font-size: 18px;&quot;&gt;Browser&lt;/font&gt;&lt;br&gt;(software System)&lt;br&gt;&lt;br&gt;&lt;font style=&quot;font-size: 14px;&quot;&gt;Displays the current state of task list in sorted order.&lt;br&gt;&lt;/font&gt;" style="rounded=0;whiteSpace=wrap;html=1;fillColor=#f5f5f5;gradientColor=#b3b3b3;strokeColor=#666666;" parent="1" vertex="1">
          <mxGeometry x="508" y="230" width="270" height="140" as="geometry" />
        </mxCell>
        <mxCell id="Ex-QI2LHUBcfyn989spc-6" value="" style="endArrow=classic;html=1;rounded=0;entryX=0.25;entryY=1;entryDx=0;entryDy=0;exitX=1;exitY=0.25;exitDx=0;exitDy=0;" parent="1" source="Ex-QI2LHUBcfyn989spc-3" target="Ex-QI2LHUBcfyn989spc-5" edge="1">
          <mxGeometry width="50" height="50" relative="1" as="geometry">
            <mxPoint x="390" y="330" as="sourcePoint" />
            <mxPoint x="440" y="280" as="targetPoint" />
          </mxGeometry>
        </mxCell>
        <mxCell id="Ex-QI2LHUBcfyn989spc-7" value="Send the formatted &lt;br&gt;output to Browser" style="edgeLabel;html=1;align=center;verticalAlign=middle;resizable=0;points=[];" parent="Ex-QI2LHUBcfyn989spc-6" vertex="1" connectable="0">
          <mxGeometry x="-0.0493" y="-1" relative="1" as="geometry">
            <mxPoint as="offset" />
          </mxGeometry>
        </mxCell>
        <mxCell id="Ex-QI2LHUBcfyn989spc-8" value="" style="endArrow=classic;html=1;rounded=0;entryX=1;entryY=0.5;entryDx=0;entryDy=0;exitX=0.5;exitY=0;exitDx=0;exitDy=0;" parent="1" source="Ex-QI2LHUBcfyn989spc-5" target="Ex-QI2LHUBcfyn989spc-1" edge="1">
          <mxGeometry width="50" height="50" relative="1" as="geometry">
            <mxPoint x="390" y="330" as="sourcePoint" />
            <mxPoint x="440" y="280" as="targetPoint" />
          </mxGeometry>
        </mxCell>
        <mxCell id="Ex-QI2LHUBcfyn989spc-9" value="User&amp;nbsp; can see the current &lt;br&gt;state of Task board" style="edgeLabel;html=1;align=center;verticalAlign=middle;resizable=0;points=[];" parent="Ex-QI2LHUBcfyn989spc-8" vertex="1" connectable="0">
          <mxGeometry x="0.2835" relative="1" as="geometry">
            <mxPoint x="35" y="-3" as="offset" />
          </mxGeometry>
        </mxCell>
        <mxCell id="Ex-QI2LHUBcfyn989spc-10" value="" style="endArrow=classic;html=1;rounded=0;exitX=0;exitY=0.5;exitDx=0;exitDy=0;entryX=0.5;entryY=0;entryDx=0;entryDy=0;" parent="1" source="Ex-QI2LHUBcfyn989spc-5" target="Ex-QI2LHUBcfyn989spc-3" edge="1">
          <mxGeometry width="50" height="50" relative="1" as="geometry">
            <mxPoint x="390" y="330" as="sourcePoint" />
            <mxPoint x="450" y="360" as="targetPoint" />
          </mxGeometry>
        </mxCell>
        <mxCell id="Ex-QI2LHUBcfyn989spc-11" value="User input sent to TODO App" style="edgeLabel;html=1;align=center;verticalAlign=middle;resizable=0;points=[];" parent="Ex-QI2LHUBcfyn989spc-10" vertex="1" connectable="0">
          <mxGeometry x="0.0387" relative="1" as="geometry">
            <mxPoint as="offset" />
          </mxGeometry>
        </mxCell>
        <mxCell id="Ex-QI2LHUBcfyn989spc-16" value="" style="endArrow=classic;startArrow=classic;html=1;rounded=0;entryX=0;entryY=0.5;entryDx=0;entryDy=0;exitX=1;exitY=0;exitDx=0;exitDy=0;" parent="1" source="wrt3uvYGA9oHWm0L5T7d-1" target="wrt3uvYGA9oHWm0L5T7d-2" edge="1">
          <mxGeometry width="50" height="50" relative="1" as="geometry">
            <mxPoint x="390" y="600" as="sourcePoint" />
            <mxPoint x="509" y="572" as="targetPoint" />
          </mxGeometry>
        </mxCell>
        <mxCell id="Ex-QI2LHUBcfyn989spc-17" value="Makes API calls&amp;nbsp; to trello&amp;nbsp;&lt;br&gt;and fetches latest state." style="edgeLabel;html=1;align=center;verticalAlign=middle;resizable=0;points=[];" parent="Ex-QI2LHUBcfyn989spc-16" vertex="1" connectable="0">
          <mxGeometry x="-0.1214" y="1" relative="1" as="geometry">
            <mxPoint as="offset" />
          </mxGeometry>
        </mxCell>
        <mxCell id="wrt3uvYGA9oHWm0L5T7d-1" value="&lt;font style=&quot;font-size: 18px;&quot;&gt;&lt;b&gt;Gunicorn Interface&lt;/b&gt;&lt;/font&gt;&lt;br&gt;(Application Container Instance)&lt;br&gt;&lt;font style=&quot;&quot;&gt;&lt;font style=&quot;font-size: 6px;&quot;&gt;&lt;br&gt;&lt;/font&gt;&lt;span style=&quot;font-size: 14px;&quot;&gt;Create new application instance,&lt;br&gt;&lt;/span&gt;&lt;span style=&quot;font-size: 14px;&quot;&gt;Allows user to change the status or delete finished cards&lt;/span&gt;&lt;br&gt;&lt;/font&gt;" style="rounded=0;whiteSpace=wrap;html=1;fillColor=#dae8fc;strokeColor=#6c8ebf;gradientColor=#7ea6e0;fontStyle=4" vertex="1" parent="1">
          <mxGeometry x="169" y="791" width="271" height="160" as="geometry" />
        </mxCell>
        <mxCell id="wrt3uvYGA9oHWm0L5T7d-2" value="&lt;font style=&quot;font-size: 14px;&quot;&gt;&lt;font style=&quot;border-color: var(--border-color); font-size: 18px;&quot;&gt;&lt;b style=&quot;border-color: var(--border-color);&quot;&gt;Trello&amp;nbsp;&lt;/b&gt;&lt;/font&gt;&lt;br style=&quot;border-color: var(--border-color); font-size: 12px;&quot;&gt;(Trello API)&lt;br style=&quot;border-color: var(--border-color); font-size: 12px;&quot;&gt;&lt;font style=&quot;border-color: var(--border-color); font-size: 12px;&quot;&gt;&lt;font style=&quot;border-color: var(--border-color); font-size: 6px;&quot;&gt;&lt;br style=&quot;border-color: var(--border-color);&quot;&gt;&lt;/font&gt;&lt;span style=&quot;border-color: var(--border-color); font-size: 14px;&quot;&gt;Provides functionality to create new cards,&amp;nbsp;&lt;/span&gt;&lt;span style=&quot;border-color: var(--border-color); font-size: 14px;&quot;&gt;allows user to change the status or delete finished cards&lt;/span&gt;&lt;br style=&quot;border-color: var(--border-color);&quot;&gt;&lt;font style=&quot;border-color: var(--border-color); font-size: 8px;&quot;&gt;&lt;br style=&quot;border-color: var(--border-color);&quot;&gt;&lt;/font&gt;&lt;span style=&quot;border-color: var(--border-color); font-size: 14px;&quot;&gt;Todo =&amp;gt;&amp;nbsp; In Progress =&amp;gt; Done&lt;/span&gt;&lt;br style=&quot;border-color: var(--border-color);&quot;&gt;&lt;/font&gt;&lt;/font&gt;" style="rounded=0;whiteSpace=wrap;html=1;fillColor=#f5f5f5;gradientColor=#b3b3b3;strokeColor=#666666;" vertex="1" parent="1">
          <mxGeometry x="508" y="474" width="270" height="180" as="geometry" />
        </mxCell>
        <mxCell id="wrt3uvYGA9oHWm0L5T7d-4" value="" style="endArrow=classic;startArrow=classic;html=1;rounded=0;entryX=0.5;entryY=1;entryDx=0;entryDy=0;exitX=0.5;exitY=0;exitDx=0;exitDy=0;" edge="1" parent="1" source="wrt3uvYGA9oHWm0L5T7d-1" target="Ex-QI2LHUBcfyn989spc-3">
          <mxGeometry width="50" height="50" relative="1" as="geometry">
            <mxPoint x="450" y="801" as="sourcePoint" />
            <mxPoint x="518" y="574" as="targetPoint" />
          </mxGeometry>
        </mxCell>
        <mxCell id="wrt3uvYGA9oHWm0L5T7d-5" value="Use Gunicorn instance&amp;nbsp; for communiication to Trello" style="edgeLabel;html=1;align=center;verticalAlign=middle;resizable=0;points=[];" vertex="1" connectable="0" parent="wrt3uvYGA9oHWm0L5T7d-4">
          <mxGeometry x="-0.1214" y="1" relative="1" as="geometry">
            <mxPoint as="offset" />
          </mxGeometry>
        </mxCell>
      </root>
    </mxGraphModel>
  </diagram>
</mxfile>
